question,optA,OptB,Answer
Beras ketan boleh ?,YA,TIDAK,TIDAK
Boleh ga sih nyemil keju jam 2 siang ?,YA,TIDAK,YA
Roti gandum di pagi hari boleh tidak?,YA,TIDAK,TIDAK
Boleh ga sih sarapan pake telur aja ?,YA,TIDAK,YA
Boleh ga makan ati?,YA,TIDAK,TIDAK
Apakah bihun itu karbo ?,YA,TIDAK,YA
Kentang itu karbo ya ?,YA,TIDAK,YA
Boleh ga sih sarapan jus tomat aja ?,YA,TIDAK,TIDAK
Kalau lagi hujan diet nya boleh batal ?,YA,TIDAK,TIDAK
Boleh ga makan sebelum olahraga ?,YA,TIDAK,YA
